{
    "prepare_queue": {
        "installed": [],
        "uninstalled": []
    },
    "config_munge": {
        "files": {
            "config.xml": {
                "parents": {
                    "/*": [
                        {
                            "xml": "<feature name=\"Keyboard\"><param name=\"ios-package\" onload=\"true\" value=\"IonicKeyboard\" /></feature>",
                            "count": 1
                        },
                        {
                            "xml": "<feature name=\"Device\"><param name=\"ios-package\" value=\"CDVDevice\" /></feature>",
                            "count": 1
                        },
                        {
                            "xml": "<access origin=\"http://localhost\" />",
                            "count": 1
                        },
                        {
                            "xml": "<access origin=\"https://*.force.com\" />",
                            "count": 1
                        },
                        {
                            "xml": "<access origin=\"https://*.salesforce.com\" />",
                            "count": 1
                        },
                        {
                            "xml": "<feature name=\"com.salesforce.oauth\"><param name=\"ios-package\" value=\"SalesforceOAuthPlugin\" /></feature>",
                            "count": 1
                        },
                        {
                            "xml": "<feature name=\"com.salesforce.sdkinfo\"><param name=\"ios-package\" value=\"SFSDKInfoPlugin\" /></feature>",
                            "count": 1
                        },
                        {
                            "xml": "<feature name=\"com.salesforce.sfaccountmanager\"><param name=\"ios-package\" value=\"SFAccountManagerPlugin\" /></feature>",
                            "count": 1
                        },
                        {
                            "xml": "<feature name=\"com.salesforce.smartstore\"><param name=\"ios-package\" value=\"SFSmartStorePlugin\" /></feature>",
                            "count": 1
                        },
                        {
                            "xml": "<feature name=\"com.salesforce.smartsync\"><param name=\"ios-package\" value=\"SFSmartSyncPlugin\" /></feature>",
                            "count": 1
                        },
                        {
                            "xml": "<feature name=\"Console\"><param name=\"ios-package\" value=\"CDVLogger\" /></feature>",
                            "count": 1
                        },
                        {
                            "xml": "<feature name=\"NetworkStatus\"><param name=\"ios-package\" value=\"CDVConnection\" /></feature>",
                            "count": 1
                        },
                        {
                            "xml": "<feature name=\"Camera\"><param name=\"ios-package\" value=\"CDVCamera\" /></feature>",
                            "count": 1
                        },
                        {
                            "xml": "<preference name=\"CameraUsesGeolocation\" value=\"false\" />",
                            "count": 1
                        },
                        {
                            "xml": "<feature name=\"Geolocation\"><param name=\"ios-package\" value=\"CDVLocation\" /></feature>",
                            "count": 1
                        }
                    ]
                }
            },
            "framework": {
                "parents": {
                    "libxml2.dylib": [
                        {
                            "xml": "false",
                            "count": 1
                        }
                    ],
                    "libz.dylib": [
                        {
                            "xml": "false",
                            "count": 1
                        }
                    ],
                    "AddressBook.framework": [
                        {
                            "xml": "true",
                            "count": 1
                        }
                    ],
                    "AddressBookUI.framework": [
                        {
                            "xml": "true",
                            "count": 1
                        }
                    ],
                    "CoreGraphics.framework": [
                        {
                            "xml": "true",
                            "count": 1
                        },
                        {
                            "xml": "false",
                            "count": 2
                        }
                    ],
                    "CoreLocation.framework": [
                        {
                            "xml": "true",
                            "count": 1
                        },
                        {
                            "xml": "false",
                            "count": 2
                        }
                    ],
                    "Foundation.framework": [
                        {
                            "xml": "true",
                            "count": 1
                        }
                    ],
                    "MessageUI.framework": [
                        {
                            "xml": "true",
                            "count": 1
                        }
                    ],
                    "MobileCoreServices.framework": [
                        {
                            "xml": "true",
                            "count": 1
                        },
                        {
                            "xml": "false",
                            "count": 1
                        }
                    ],
                    "QuartzCore.framework": [
                        {
                            "xml": "true",
                            "count": 1
                        }
                    ],
                    "Security.framework": [
                        {
                            "xml": "true",
                            "count": 1
                        }
                    ],
                    "SystemConfiguration.framework": [
                        {
                            "xml": "true",
                            "count": 2
                        }
                    ],
                    "UIKit.framework": [
                        {
                            "xml": "true",
                            "count": 1
                        }
                    ],
                    "AssetsLibrary.framework": [
                        {
                            "xml": "true",
                            "count": 1
                        },
                        {
                            "xml": "false",
                            "count": 1
                        }
                    ],
                    "ImageIO.framework": [
                        {
                            "xml": "true",
                            "count": 2
                        }
                    ]
                }
            },
            "*-Info.plist": {
                "parents": {
                    "NSLocationWhenInUseUsageDescription": [
                        {
                            "xml": "<string />",
                            "count": 2
                        }
                    ]
                }
            }
        }
    },
    "installed_plugins": {
        "com.ionic.keyboard": {
            "PACKAGE_NAME": "net.mobilecaddy.bizcaddy"
        },
        "com.salesforce": {
            "PACKAGE_NAME": "net.mobilecaddy.bizcaddy"
        },
        "org.apache.cordova.console": {
            "PACKAGE_NAME": "net.mobilecaddy.bizcaddy"
        },
        "org.apache.cordova.network-information": {
            "PACKAGE_NAME": "net.mobilecaddy.bizcaddy"
        },
        "org.apache.cordova.camera": {
            "PACKAGE_NAME": "net.mobilecaddy.bizcaddy"
        },
        "org.apache.cordova.geolocation": {
            "PACKAGE_NAME": "net.mobilecaddy.bizcaddy"
        }
    },
    "dependent_plugins": {
        "org.apache.cordova.device": {
            "PACKAGE_NAME": "net.mobilecaddy.bizcaddy"
        }
    }
}